…
From the table above, the only feature that needs to be transformed is the `population`, and because its skewness is higher than 0, the transformation to apply will be a logarithm.

## Missing data

The last thing to fix is the missing values of the `taux_adoption_energies_renouvelables`. To determine how to address it, let's first examine the number of missing values per country.

```{r}
train %>% group_by(country, lat, lon) %>% 
  summarize(na = sum(is.na(taux_adoption_energies_renouvelables)),
            n = n(),
            na_ratio = na/n,
            .groups = 'drop')
# # A tibble: 53 × 6
# country                     lat    lon    na     n na_ratio
# <chr>                     <dbl>  <dbl> <int> <int>    <dbl>
#   1 Algeria                   28.0    1.66   262  2759   0.0950
# 2 Angola                   -11.2   17.9    282  2861   0.0986
# 3 Benin                      9.31   2.32   298  2850   0.105 
# 4 Botswana                 -22.3   24.7    299  2785   0.107 
# 5 Burkina Faso              12.2   -1.56   286  2892   0.0989
# 6 Burundi                   -3.37  29.9    253  2843   0.0890
# 7 Cameroon                   3.85  11.5    298  2877   0.104 
# 8 Cape Verde                16.5  -23.0    289  2863   0.101 
# 9 Central African Republic   6.61  20.9    294  2846   0.103 
# 10 Chad                      15.5   18.7    290  2927   0.0991
# # 43 more rows
# # Use `print(n = ...)` to see more rows
…
